<svg width="10" height="10" viewBox="0 0 10 10" fill="none" xmlns="http://www.w3.org/2000/svg">
<path d="M4.03304 3.68005C4.03304 3.99997 3.75873 4.26172 3.42345 4.26172H1.35082C1.01555 4.26172 0.741226 3.99997 0.741226 3.68005V1.7024C0.741226 1.38248 1.01555 1.12073 1.35082 1.12073H3.42345C3.75873 1.12073 4.03304 1.38248 4.03304 1.7024V3.68005Z" stroke="white" stroke-width="0.5" stroke-miterlimit="10" stroke-linecap="round"/>
<path d="M8.88948 3.68005C8.88948 3.99997 8.61517 4.26172 8.27989 4.26172H6.20727C5.87199 4.26172 5.59767 3.99997 5.59767 3.68005V1.7024C5.59767 1.38248 5.87199 1.12073 6.20727 1.12073H8.27989C8.61517 1.12073 8.88948 1.38248 8.88948 1.7024V3.68005Z" stroke="white" stroke-width="0.5" stroke-miterlimit="10" stroke-linecap="round"/>
<path d="M4.03304 8.37219C4.03304 8.69211 3.75873 8.95386 3.42345 8.95386H1.35082C1.01555 8.95386 0.741226 8.69211 0.741226 8.37219V6.39454C0.741226 6.07462 1.01555 5.81287 1.35082 5.81287H3.42345C3.75873 5.81287 4.03304 6.07462 4.03304 6.39454V8.37219Z" stroke="white" stroke-width="0.5" stroke-miterlimit="10" stroke-linecap="round"/>
<path d="M8.88948 8.37219C8.88948 8.69211 8.61517 8.95386 8.27989 8.95386H6.20727C5.87199 8.95386 5.59767 8.69211 5.59767 8.37219V6.39454C5.59767 6.07462 5.87199 5.81287 6.20727 5.81287H8.27989C8.61517 5.81287 8.88948 6.07462 8.88948 6.39454V8.37219Z" stroke="white" stroke-width="0.5" stroke-miterlimit="10" stroke-linecap="round"/>
</svg>
